ISSS624_A01 - In_Class_Exercise2 : Nigeria Water Functional & Non Functional Water Points
…
ℹ Use `spec()` to retrieve the full column specification for this data.
ℹ Specify the column types or set `show_col_types = FALSE` to quiet this message.

After running code chunk above, we can observe that there are 406566 rows and 70 columns. This helps us to tally with source data and check if all records are correctly imported in R or not.

After importing the data file into R, it is important for us to examine if the data file has been imported correctly.

The code chunk below shows list() of Base R instead of glimpse() is used to do the job.

list(water_point_csv)

[[1]]
# A tibble: 406,566 × 70
   row_id `#source`     #lat_d…¹ #lon_…² #repo…³ #stat…⁴ #wate…⁵ #wate…⁶ #wate…⁷
    <dbl> <chr>            <dbl>   <dbl> <chr>   <chr>   <chr>   <chr>   <chr>  
 1 651816 Water For Pe… -1.57e+1   35.1  06/11/… Yes     <NA>    <NA>    Kiosk  
 2 584864 Global Envir…  6.72e+0   -1.58 10/25/… Yes     <NA>    <NA>    Tapsta…
 3 509399 GOAL           8.00e+0  -11.3  12/31/… Yes     <NA>    <NA>    Tapsta…
 4  21983 WASH Liberia   8.08e+0  -10.1  12/04/… Yes     <NA>    <NA>    Tapsta…
 5 660321 Water For Pe…  1.87e-1   30.4  03/14/… Yes     Piped … Piped … <NA>   
 6 666619 Water For Pe… -4.23e-2   30.4  03/19/… Yes     Piped … Piped … <NA>   
 7 657081 Water For Pe…  1.58e-3   30.3  03/05/… Yes     <NA>    <NA>    Tapsta…
 8 669213 Water For Pe…  4.72e-2   30.4  09/07/… Yes     <NA>    <NA>    Tapsta…
 9 668012 Water For Pe…  2.95e-1   30.7  03/02/… Yes     <NA>    <NA>    Tapsta…
10 672047 Water For Pe…  2.85e-1   30.6  03/20/… Yes     Piped … Piped … <NA>   
# … with 406,556 more rows, 61 more variables: `#water_tech_category` <chr>,
#   `#facility_type` <chr>, `#clean_country_name` <chr>, `#clean_adm1` <chr>,
#   `#clean_adm2` <chr>, `#clean_adm3` <chr>, `#clean_adm4` <chr>,
#   `#install_year` <dbl>, `#installer` <chr>, `#rehab_year` <lgl>,
#   `#rehabilitator` <lgl>, `#management_clean` <chr>, `#status_clean` <chr>,
#   `#pay` <chr>, `#fecal_coliform_presence` <chr>,
#   `#fecal_coliform_value` <dbl>, `#subjective_quality` <chr>, …
…
